Read count	Percentage	CDR3 nucleotide sequence	CDR3 amino acid sequence	V segments	J segments	D segments	Last V nucleotide position	First D nucleotide position	Last D nucleotide position	First J nucleotide position	VD insertions	DJ insertions	Total insertions
20778		GCCAGCAGGAGGGACTGGGGGAACACCGGGCAGCTCTAC	ASSLDGWNYAEQF	TRBV19	TRBJ2-2	TRBD2	10	13	23	24	2	0	2
17323		ACCTGCAGTGCAGATGATAATTCGCCCCTCTAC	TCSADDNSPLY	TRBV1	TRBJ2-5	TRBD1; TRBD2	13	26	30	33	12	2	14
12441		GCCAGCAGATCACAGGGGAACTCCGACTACACC	ASRSQGNSDYT	TRBV19	TRBJ1-2	TRBD1	10	14	20	21	3	0	3
11415		GCCAGCAGTCTCAGCTATGAGCAGTAC	ASSLSYEQY	TRBV26; TRBV24	TRBJ2-7	TRBD1; TRBD2	13	14	16	17	0	0	0
6215		GCCAGCAGTATGGTGGGTAACTATGCTGAGCAGTTC	ASSMVGNYAEQF	TRBV19	TRBJ2-1	TRBD2	13	16	19	20	2	0	2
5809		GCAAGCAGCCCCGAGACAGGGGCAGACACCCAGTAC	ASSPETGADTQY	TRBV16	TRBJ2-5	TRBD1	11	17	24	26	5	1	6
