Read count;Percentage;CDR3 nucleotide sequence;CDR3 amino acid sequence;V segments;J segments;D segments;Last V nucleotide position;First D nucleotide position;Last D nucleotide position;First J nucleotide position;VD insertions;DJ insertions;Total insertions
11783;0.02747984430498;ACCTGCAGTGCAGATGATAATTCGCCCCTCTAC;TCSADDNSPLY;TRBV1;TRBJ2-5;"TRBD1; TRBD2";13;26;30;33;12;2;14
11415;0.02662160933051;GCCAGCAGTCTCAGCTATGAGCAGTAC;ASSLSYEQY;"TRBV26; TRBV24";TRBJ2-7;"TRBD1; TRBD2";13;14;16;17;0;0;0
8783;0.02048336353481;GCCAGCAGGAGGGACTGGGGGAACACCGGGCAGCTCTAC;ASRRDWGNTGQLY;TRBV19;TRBJ2-2;TRBD2;10;13;23;24;2;0;2
6537;0.01524533159821;GCCAGCAGATCACAGGGGAACTCCGACTACACC;ASRSQGNSDYT;TRBV19;TRBJ1-2;TRBD1;10;14;20;21;3;0;3
6466;0.01507974821998;GCAAGCAGCTTAGATGGCTGGAACTATGCTGAGCAGTTC;ASSLDGWNYAEQF;TRBV16;TRBJ2-1;TRBD2;16;20;23;24;3;0;3
6215;0.01449437599554;GCCAGCAGTATGGTGGGTAACTATGCTGAGCAGTTC;ASSMVGNYAEQF;TRBV19;TRBJ2-1;TRBD2;13;16;19;20;2;0;2
5904;0.0137690741557;GCCAGCAATCCACTGGGTTATGAGCAGTAC;ASNPLGYEQY;TRBV19;TRBJ2-7;TRBD2;9;14;19;21;4;1;5
5809;0.01354751893131;GCAAGCAGCCCCGAGACAGGGGCAGACACCCAGTAC;ASSPETGADTQY;TRBV16;TRBJ2-5;TRBD1;11;17;24;26;5;1;6
5540;0.01292016782225;GCCAGCAGTTTGACAGAAAAATATGAGCAGTAC;ASSLTEKYEQY;"TRBV26; TRBV24";TRBJ2-7;TRBD1;11;14;18;24;2;5;7
5529;0.01289451405943;ACCTGCAGTGCCAACTATGCTGAGCAGTTC;TCSANYAEQF;TRBV1;TRBJ2-1;"TRBD1; TRBD2";13;-1;-1;15;-1;-1;1
