	Read count	Percentage	CDR3 nucleotide sequence	V segments	J segments	D segments	Last V nucleotide position	First D nucleotide position	Last D nucleotide position	First J nucleotide position	VD insertions	DJ insertions	Total insertions
CTCSADDNSPLYF	11783	0.0274798443	ACCTGCAGTGCAGATGATAATTCGCCCCTCTAC	TRBV1	TRBJ2-5	TRBD1; TRBD2	13	26	30	33	12	2	14
CASSLSYEQYF	11415	0.0266216093	GCCAGCAGTCTCAGCTATGAGCAGTAC	TRBV26; TRBV24	TRBJ2-7	TRBD1; TRBD2	13	14	16	17	0	0	0
CASRRDWGNTGQLYF	8783	0.0204833635	GCCAGCAGGAGGGACTGGGGGAACACCGGGCAGCTCTAC	TRBV19	TRBJ2-2	TRBD2	10	13	23	24	2	0	2
CASRSQGNSDYTF	6537	0.0152453316	GCCAGCAGATCACAGGGGAACTCCGACTACACC	TRBV19	TRBJ1-2	TRBD1	10	14	20	21	3	0	3
CASSLDGWNYAEQFF	6466	0.0150797482	GCAAGCAGCTTAGATGGCTGGAACTATGCTGAGCAGTTC	TRBV16	TRBJ2-1	TRBD2	16	20	23	24	3	0	3
CASSMVGNYAEQFF	6215	0.014494376	GCCAGCAGTATGGTGGGTAACTATGCTGAGCAGTTC	TRBV19	TRBJ2-1	TRBD2	13	16	19	20	2	0	2
CASNPLGYEQYF	5904	0.0137690742	GCCAGCAATCCACTGGGTTATGAGCAGTAC	TRBV19	TRBJ2-7	TRBD2	9	14	19	21	4	1	5
CASSPETGADTQYF	5809	0.0135475189	GCAAGCAGCCCCGAGACAGGGGCAGACACCCAGTAC	TRBV16	TRBJ2-5	TRBD1	11	17	24	26	5	1	6
CASSLTEKYEQYF	5540	0.0129201678	GCCAGCAGTTTGACAGAAAAATATGAGCAGTAC	TRBV26; TRBV24	TRBJ2-7	TRBD1	11	14	18	24	2	5	7
CTCSANYAEQFF	5529	0.0128945141	ACCTGCAGTGCCAACTATGCTGAGCAGTTC	TRBV1	TRBJ2-1	TRBD1; TRBD2	13	-1	-1	15	-1	-1	1
